<?xml version="1.0" encoding="UTF-8"?><svg xmlns="http://www.w3.org/2000/svg" xmlns:xlink="http://www.w3.org/1999/xlink" fill-opacity="1" color-rendering="auto" color-interpolation="auto" text-rendering="auto" stroke="black" stroke-linecap="square" width="912" stroke-miterlimit="10" shape-rendering="auto" stroke-opacity="1" fill="black" stroke-dasharray="none" font-weight="normal" stroke-width="1" height="538" font-family="'Dialog'" font-style="normal" stroke-linejoin="miter" font-size="12px" stroke-dashoffset="0" image-rendering="auto">
  <!--Generated by ySVG 2.5-->
  <defs id="genericDefs"/>
  <g>
    <defs id="defs1">
      <clipPath clipPathUnits="userSpaceOnUse" id="clipPath1">
        <path d="M0 0 L912 0 L912 538 L0 538 L0 0 Z"/>
      </clipPath>
      <clipPath clipPathUnits="userSpaceOnUse" id="clipPath2">
        <path d="M126 -79 L1038 -79 L1038 459 L126 459 L126 -79 Z"/>
      </clipPath>
    </defs>
    <g fill="white" text-rendering="geometricPrecision" shape-rendering="geometricPrecision" transform="translate(-126,79)" stroke="white">
      <rect x="126" width="912" height="538" y="-79" clip-path="url(#clipPath2)" stroke="none"/>
    </g>
    <g fill="rgb(51,51,51)" text-rendering="geometricPrecision" shape-rendering="geometricPrecision" transform="matrix(1,0,0,1,-126,79)" stroke="rgb(51,51,51)">
      <rect x="439.9375" width="201.1875" height="99" y="-64" clip-path="url(#clipPath2)" stroke="none"/>
    </g>
    <g stroke-linecap="butt" font-size="25px" transform="matrix(1,0,0,1,-126,79)" fill="white" text-rendering="geometricPrecision" font-family="'Arial'" shape-rendering="geometricPrecision" stroke="white" stroke-miterlimit="1.45">
      <text x="482.8652" xml:space="preserve" y="-30.333" clip-path="url(#clipPath2)" stroke="none">Quick App</text>
    </g>
    <g fill="rgb(0,204,255)" text-rendering="geometricPrecision" shape-rendering="geometricPrecision" transform="matrix(1,0,0,1,-126,79)" stroke="rgb(0,204,255)">
      <rect x="141.75" width="248.25" height="104.25" y="126.75" clip-path="url(#clipPath2)" stroke="none"/>
    </g>
    <g stroke-linecap="butt" font-size="18px" transform="matrix(1,0,0,1,-126,79)" fill="white" text-rendering="geometricPrecision" font-family="'Arial'" shape-rendering="geometricPrecision" stroke="white" stroke-miterlimit="1.45">
      <text x="191.335" xml:space="preserve" y="149.0449" clip-path="url(#clipPath2)" stroke="none">Page (e.g., /home)</text>
    </g>
    <g fill="rgb(0,204,255)" text-rendering="geometricPrecision" shape-rendering="geometricPrecision" transform="matrix(1,0,0,1,-126,79)" stroke="rgb(0,204,255)">
      <rect x="457.875" width="248.25" height="104.25" y="126.75" clip-path="url(#clipPath2)" stroke="none"/>
    </g>
    <g stroke-linecap="butt" font-size="18px" transform="matrix(1,0,0,1,-126,79)" fill="white" text-rendering="geometricPrecision" font-family="'Arial'" shape-rendering="geometricPrecision" stroke="white" stroke-miterlimit="1.45">
      <text x="500.9517" xml:space="preserve" y="149.0449" clip-path="url(#clipPath2)" stroke="none">Page (e.g., /catalog)</text>
    </g>
    <g fill="rgb(0,204,255)" text-rendering="geometricPrecision" shape-rendering="geometricPrecision" transform="matrix(1,0,0,1,-126,79)" stroke="rgb(0,204,255)">
      <rect x="774" width="248.25" height="104.25" y="126.75" clip-path="url(#clipPath2)" stroke="none"/>
    </g>
    <g stroke-linecap="butt" font-size="18px" transform="matrix(1,0,0,1,-126,79)" fill="white" text-rendering="geometricPrecision" font-family="'Arial'" shape-rendering="geometricPrecision" stroke="white" stroke-miterlimit="1.45">
      <text x="824.5825" xml:space="preserve" y="149.0449" clip-path="url(#clipPath2)" stroke="none">Page (e.g., /detail)</text>
    </g>
    <g fill="rgb(51,51,51)" text-rendering="geometricPrecision" shape-rendering="geometricPrecision" transform="matrix(1,0,0,1,-126,79)" stroke="rgb(51,51,51)">
      <rect x="195.375" width="141" height="53" y="166.75" clip-path="url(#clipPath2)" stroke="none"/>
    </g>
    <g stroke-linecap="butt" font-size="18px" transform="matrix(1,0,0,1,-126,79)" fill="white" text-rendering="geometricPrecision" font-family="'Arial'" shape-rendering="geometricPrecision" stroke="white" stroke-miterlimit="1.45">
      <text x="200.8447" xml:space="preserve" y="199.4902" clip-path="url(#clipPath2)" stroke="none">component (.ux)</text>
    </g>
    <g fill="rgb(51,51,51)" text-rendering="geometricPrecision" shape-rendering="geometricPrecision" transform="matrix(1,0,0,1,-126,79)" stroke="rgb(51,51,51)">
      <rect x="430" width="168" height="53" y="278.875" clip-path="url(#clipPath2)" stroke="none"/>
    </g>
    <g stroke-linecap="butt" font-size="18px" transform="matrix(1,0,0,1,-126,79)" fill="white" text-rendering="geometricPrecision" font-family="'Arial'" shape-rendering="geometricPrecision" stroke="white" stroke-miterlimit="1.45">
      <text x="499.4893" xml:space="preserve" y="301.5605" clip-path="url(#clipPath2)" stroke="none">sub</text>
      <text x="448.9697" xml:space="preserve" y="321.6699" clip-path="url(#clipPath2)" stroke="none">component (.ux)</text>
    </g>
    <g fill="rgb(51,51,51)" text-rendering="geometricPrecision" shape-rendering="geometricPrecision" transform="matrix(1,0,0,1,-126,79)" stroke="rgb(51,51,51)">
      <rect x="616.625" width="149" height="53" y="278.875" clip-path="url(#clipPath2)" stroke="none"/>
    </g>
    <g stroke-linecap="butt" font-size="18px" transform="matrix(1,0,0,1,-126,79)" fill="white" text-rendering="geometricPrecision" font-family="'Arial'" shape-rendering="geometricPrecision" stroke="white" stroke-miterlimit="1.45">
      <text x="676.6143" xml:space="preserve" y="301.5605" clip-path="url(#clipPath2)" stroke="none">sub</text>
      <text x="626.0947" xml:space="preserve" y="321.6699" clip-path="url(#clipPath2)" stroke="none">component (.ux)</text>
    </g>
    <g fill="rgb(51,51,51)" text-rendering="geometricPrecision" shape-rendering="geometricPrecision" transform="matrix(1,0,0,1,-126,79)" stroke="rgb(51,51,51)">
      <rect x="513.5" width="149" height="53" y="165.5" clip-path="url(#clipPath2)" stroke="none"/>
    </g>
    <g stroke-linecap="butt" font-size="18px" transform="matrix(1,0,0,1,-126,79)" fill="white" text-rendering="geometricPrecision" font-family="'Arial'" shape-rendering="geometricPrecision" stroke="white" stroke-miterlimit="1.45">
      <text x="522.9697" xml:space="preserve" y="198.2402" clip-path="url(#clipPath2)" stroke="none">component (.ux)</text>
    </g>
    <g fill="rgb(51,51,51)" text-rendering="geometricPrecision" shape-rendering="geometricPrecision" transform="matrix(1,0,0,1,-126,79)" stroke="rgb(51,51,51)">
      <rect x="830.625" width="155" height="53" y="165" clip-path="url(#clipPath2)" stroke="none"/>
    </g>
    <g stroke-linecap="butt" font-size="18px" transform="matrix(1,0,0,1,-126,79)" fill="white" text-rendering="geometricPrecision" font-family="'Arial'" shape-rendering="geometricPrecision" stroke="white" stroke-miterlimit="1.45">
      <text x="843.0947" xml:space="preserve" y="197.7402" clip-path="url(#clipPath2)" stroke="none">component (.ux)</text>
    </g>
    <g fill="gray" text-rendering="geometricPrecision" shape-rendering="geometricPrecision" transform="matrix(1,0,0,1,-126,79)" stroke="gray">
      <rect x="571.5" width="60.125" height="41" y="-15.5" clip-path="url(#clipPath2)" stroke="none"/>
    </g>
    <g stroke-linecap="butt" font-size="18px" transform="matrix(1,0,0,1,-126,79)" fill="white" text-rendering="geometricPrecision" font-family="'Arial'" shape-rendering="geometricPrecision" stroke="white" stroke-miterlimit="1.45">
      <text x="574.5405" xml:space="preserve" y="11.2402" clip-path="url(#clipPath2)" stroke="none">app.ux</text>
    </g>
    <g fill="gray" text-rendering="geometricPrecision" shape-rendering="geometricPrecision" transform="matrix(1,0,0,1,-126,79)" stroke="gray">
      <rect x="448.25" width="113.125" height="41" y="-15.5" clip-path="url(#clipPath2)" stroke="none"/>
    </g>
    <g stroke-linecap="butt" font-size="18px" transform="matrix(1,0,0,1,-126,79)" fill="white" text-rendering="geometricPrecision" font-family="'Arial'" shape-rendering="geometricPrecision" stroke="white" stroke-miterlimit="1.45">
      <text x="451.7881" xml:space="preserve" y="11.2402" clip-path="url(#clipPath2)" stroke="none">manifest.json</text>
    </g>
    <g fill="rgb(51,51,51)" text-rendering="geometricPrecision" shape-rendering="geometricPrecision" transform="matrix(1,0,0,1,-126,79)" stroke="rgb(51,51,51)">
      <rect x="171.375" width="189" height="41" y="403" clip-path="url(#clipPath2)" stroke="none"/>
    </g>
    <g stroke-linecap="butt" font-size="18px" transform="matrix(1,0,0,1,-126,79)" fill="white" text-rendering="geometricPrecision" font-family="'Arial'" shape-rendering="geometricPrecision" stroke="white" stroke-miterlimit="1.45">
      <text x="181.834" xml:space="preserve" y="429.7402" clip-path="url(#clipPath2)" stroke="none">./common/image.png</text>
    </g>
    <g fill="rgb(51,51,51)" text-rendering="geometricPrecision" shape-rendering="geometricPrecision" transform="matrix(1,0,0,1,-126,79)" stroke="rgb(51,51,51)">
      <rect x="467.25" width="189" height="41" y="403" clip-path="url(#clipPath2)" stroke="none"/>
    </g>
    <g stroke-linecap="butt" font-size="18px" transform="matrix(1,0,0,1,-126,79)" fill="white" text-rendering="geometricPrecision" font-family="'Arial'" shape-rendering="geometricPrecision" stroke="white" stroke-miterlimit="1.45">
      <text x="485.2324" xml:space="preserve" y="429.7402" clip-path="url(#clipPath2)" stroke="none">./common/style.css</text>
    </g>
    <g fill="rgb(51,51,51)" text-rendering="geometricPrecision" shape-rendering="geometricPrecision" transform="matrix(1,0,0,1,-126,79)" stroke="rgb(51,51,51)">
      <rect x="763.125" width="168" height="41" y="403" clip-path="url(#clipPath2)" stroke="none"/>
    </g>
    <g stroke-linecap="butt" font-size="18px" transform="matrix(1,0,0,1,-126,79)" fill="white" text-rendering="geometricPrecision" font-family="'Arial'" shape-rendering="geometricPrecision" stroke="white" stroke-miterlimit="1.45">
      <text x="777.6035" xml:space="preserve" y="429.7402" clip-path="url(#clipPath2)" stroke="none">./common/logic.js</text>
    </g>
    <g text-rendering="geometricPrecision" stroke-miterlimit="1.45" stroke-width="4" shape-rendering="geometricPrecision" transform="matrix(1,0,0,1,-126,79)" stroke-linecap="butt">
      <path fill="none" d="M470.2249 35 L348.9041 120.4174" clip-path="url(#clipPath2)"/>
      <path d="M339.9097 126.75 L357.3591 122.8726 L350.0284 119.6258 L349.4434 111.6297 Z" clip-path="url(#clipPath2)" stroke="none"/>
      <path fill="none" d="M551.1464 35 L568.5154 115.9945" clip-path="url(#clipPath2)"/>
      <path d="M570.822 126.75 L574.0844 109.1752 L568.2271 114.6501 L560.64 112.0584 Z" clip-path="url(#clipPath2)" stroke="none"/>
      <path fill="none" d="M632.0679 35 L792.0583 121.5176" clip-path="url(#clipPath2)"/>
      <path d="M801.7342 126.75 L790.4907 112.854 L790.8489 120.8636 L783.9502 124.9488 Z" clip-path="url(#clipPath2)" stroke="none"/>
      <path fill="none" d="M612.1042 218.5 L659.6192 270.7377" clip-path="url(#clipPath2)"/>
      <path d="M667.0208 278.875 L661.0042 262.043 L658.694 269.7206 L650.8325 271.2951 Z" clip-path="url(#clipPath2)" stroke="none"/>
      <path fill="none" d="M570.7034 218.5 L537.309 269.6635" clip-path="url(#clipPath2)"/>
      <path d="M531.2966 278.875 L546.0723 268.8155 L538.0605 268.5121 L534.558 261.3 Z" clip-path="url(#clipPath2)" stroke="none"/>
      <path fill="none" stroke-dasharray="12,4" d="M265.875 219.75 L265.875 394" stroke-width="2" clip-path="url(#clipPath2)"/>
      <path stroke-dasharray="12,4" d="M265.875 403 L271.5 389.5 L265.875 392.875 L260.25 389.5 Z" stroke-width="2" clip-path="url(#clipPath2)" stroke="none"/>
      <path fill="none" stroke-dasharray="12,4" d="M429.9811 320.1928 L306.0563 398.2053" stroke-width="2" clip-path="url(#clipPath2)"/>
      <path stroke-dasharray="12,4" d="M298.4398 403 L312.8612 400.5683 L307.0083 397.606 L306.8679 391.0477 Z" stroke-width="2" clip-path="url(#clipPath2)" stroke="none"/>
      <path fill="none" stroke-dasharray="12,4" d="M503.2108 331.8871 L543.8048 395.416" stroke-width="2" clip-path="url(#clipPath2)"/>
      <path stroke-dasharray="12,4" d="M548.6508 403 L546.1218 388.5953 L543.199 394.468 L536.6418 394.6528 Z" stroke-width="2" clip-path="url(#clipPath2)" stroke="none"/>
      <path fill="none" stroke-dasharray="12,4" d="M653.4191 331.8944 L588.6304 396.6382" stroke-width="2" clip-path="url(#clipPath2)"/>
      <path stroke-dasharray="12,4" d="M582.2642 403 L595.7896 397.4362 L589.4261 395.843 L587.8373 389.4785 Z" stroke-width="2" clip-path="url(#clipPath2)" stroke="none"/>
      <path fill="none" stroke-dasharray="12,4" d="M901.1573 218 L854.8036 394.2958" stroke-width="2" clip-path="url(#clipPath2)"/>
      <path stroke-dasharray="12,4" d="M852.5151 403 L861.3881 391.3741 L855.0897 393.2078 L850.5078 388.5134 Z" stroke-width="2" clip-path="url(#clipPath2)" stroke="none"/>
      <path fill="none" stroke-dasharray="12,4" d="M726.1218 331.875 L812.8769 397.567" stroke-width="2" clip-path="url(#clipPath2)"/>
      <path stroke-dasharray="12,4" d="M820.052 403 L812.685 390.366 L811.98 396.8878 L805.8937 399.3349 Z" stroke-width="2" clip-path="url(#clipPath2)" stroke="none"/>
    </g>
  </g>
</svg>
